rtl_kernels/rtl_ro1_vmaccel/src/powerWaster/verilog/tb_heater.vcd
$date
	Sun Jan 29 14:14:45 2023
$end
$version
	Icarus Verilog
$end
$timescale
	1ps
$end
$scope module heater $end
$scope module ro_heater_DUT $end
$var wire 1 ! clk $end
$var wire 256 " ro_heater_data [255:0] $end
$var wire 8 # ro_heater_data_len [7:0] $end
$var wire 32 $ ro_heater_on_num [31:0] $end
$var wire 1 % ro_heater_start $end
$var wire 1 & rst $end
$var wire 32 ' ro_heater_debug [31:0] $end
$var wire 5 ( input_heater_enable [4:0] $end
$var reg 5 ) actual_heater_enable [4:0] $end
$scope begin heater_gen[0] $end
$var reg 1 * enable_heating $end
$var reg 256 + ro_heater_data_internal [255:0] $end
$var reg 3 , state_ro_heater [2:0] $end
$upscope $end
$scope begin heater_gen[1] $end
$var reg 1 - enable_heating $end
$var reg 256 . ro_heater_data_internal [255:0] $end
$var reg 3 / state_ro_heater [2:0] $end
$upscope $end
$scope begin heater_gen[2] $end
$var reg 1 0 enable_heating $end
$var reg 256 1 ro_heater_data_internal [255:0] $end
$var reg 3 2 state_ro_heater [2:0] $end
$upscope $end
$scope begin heater_gen[3] $end
$var reg 1 3 enable_heating $end
$var reg 256 4 ro_heater_data_internal [255:0] $end
$var reg 3 5 state_ro_heater [2:0] $end
$upscope $end
$scope begin heater_gen[4] $end
$var reg 1 6 enable_heating $end
$var reg 256 7 ro_heater_data_internal [255:0] $end
$var reg 3 8 state_ro_heater [2:0] $end
$upscope $end
$upscope $end
$upscope $end
$enddefinitions $end
#0
$dumpvars
b0 8
b0 7
06
b0 5
b0 4
03
b0 2
b0 1
00
b0 /
b0 .
0-
b0 ,
b0 +
0*
b0 )
b11111 (
b0 '
1&
0%
b101 $
b1000 #
b10101010 "
1!
$end
#5000
0&
0!
#10000
b1 8
b10101010 7
b1 5
b10101010 4
b1 2
b10101010 1
b1 /
b10101010 .
b1 ,
b11111 )
b10101010 +
1%
1!
#15000
0%
0!
#20000
1*
1-
10
13
16
1!
#25000
0!
#30000
1!
#35000
0!
#40000
1!
#45000
0!
#50000
1!
#55000
0!
#60000
1!
#65000
0!
#70000
b11 8
06
b11 5
03
b11 2
00
b11 /
0-
b1 '
b11 ,
0*
1!
1%
#75000
0!
0%
#80000
1!
#85000
0!
#90000
1!
#95000
0!
#100000
1!
#105000
0!
#110000
1!
#115000
0!
#120000
b10 ,
b10 /
b10 2
b10 5
b10 8
1!
1%
#125000
0!
0%
#130000
1!
#135000
0!
#140000
1!
#145000
0!
#150000
1!
#155000
0!
#160000
1!
#165000
0!
#170000
b1 8
b101010100 7
b1 5
b101010100 4
b1 2
b101010100 1
b1 /
b10 '
b101010100 .
b1 ,
b101010100 +
1!
1%
#175000
0!
0%
#180000
1!
#185000
0!
#190000
1!
#195000
0!
#200000
1!
#205000
0!
#210000
1!
#215000
0!
#220000
b11 ,
b11 /
b11 '
b11 2
b11 5
b11 8
1!
1%
#225000
0!
0%
#230000
1!
#235000
0!
#240000
1!
#245000
0!
#250000
1!
#255000
0!
#260000
1!
#265000
0!
#270000
b10 8
b10 5
b10 2
b10 /
b10 ,
1!
1%
#275000
0!
0%
#280000
1*
1-
10
13
16
1!
#285000
0!
#290000
1!
#295000
0!
#300000
1!
#305000
0!
#310000
1!
#315000
0!
#320000
b1 ,
b1010101000 +
0*
b1 /
b100 '
b1010101000 .
0-
b1 2
b1010101000 1
00
b1 5
b1010101000 4
03
b1 8
b1010101000 7
06
1!
1%
#325000
0!
0%
#330000
16
13
10
1-
1*
1!
#335000
0!
#340000
1!
#345000
0!
#350000
1!
#355000
0!
#360000
1!
#365000
0!
#370000
b11 8
06
b11 5
03
b11 2
00
b11 /
0-
b101 '
b11 ,
0*
1!
1%
#375000
0!
0%
#380000
1!
#385000
0!
#390000
1!
#395000
0!
#400000
1!
#405000
0!
#410000
1!
#415000
0!
#420000
b10 ,
b10 /
b10 2
b10 5
b10 8
1!
1%
#425000
0!
0%
#430000
1!
#435000
0!
#440000
1!
#445000
0!
#450000
1!
#455000
0!
#460000
1!
#465000
0!
#470000
b1 8
b10101010000 7
b1 5
b10101010000 4
b1 2
b10101010000 1
b1 /
b110 '
b10101010000 .
b1 ,
b10101010000 +
1!
1%
#475000
0!
0%
#480000
1!
#485000
0!
#490000
1!
#495000
0!
#500000
1!
#505000
0!
#510000
1!
#515000
0!
#520000
b11 ,
b11 /
b111 '
b11 2
b11 5
b11 8
1!
1%
#525000
0!
0%
#530000
1!
#535000
0!
#540000
1!
#545000
0!
#550000
1!
#555000
0!
#560000
1!
#565000
0!
#570000
b10 8
b10 5
b10 2
b10 /
b10 ,
1!
1%
#575000
0!
0%
#580000
1*
1-
10
13
16
1!
#585000
0!
#590000
1!
#595000
0!
#600000
1!
#605000
0!
#610000
1!
#615000
0!
#620000
b1 ,
b101010100000 +
0*
b1 /
b1000 '
b101010100000 .
0-
b1 2
b101010100000 1
00
b1 5
b101010100000 4
03
b1 8
b101010100000 7
06
1!
1%
#625000
0!
0%
#630000
16
13
10
1-
1*
1!
#635000
0!
#640000
1!
#645000
0!
#650000
1!
#655000
0!
#660000
1!
#665000
0!
#670000
b11 8
06
b11 5
03
b11 2
00
b11 /
0-
b1001 '
b11 ,
0*
1!
1%
#675000
0!
0%
#680000
1!
#685000
0!
#690000
1!
#695000
0!
#700000
1!
#705000
0!
#710000
1!
#715000
0!
#720000
b10 ,
b10 /
b10 2
b10 5
b10 8
1!
1%
#725000
0!
0%
#730000
1!
#735000
0!
#740000
1!
#745000
0!
#750000
1!
#755000
0!
#760000
1!
#765000
0!
#770000
b1 8
b1010101000000 7
b1 5
b1010101000000 4
b1 2
b1010101000000 1
b1 /
b1010 '
b1010101000000 .
b1 ,
b1010101000000 +
1!
1%
#775000
0!
0%
#780000
1!
#785000
0!
#790000
1!
#795000
0!
#800000
1!
#805000
0!
#810000
1!
#815000
0!
#820000
b11 ,
b11 /
b1011 '
b11 2
b11 5
b11 8
1!
1%
#825000
0!
0%
#830000
1!
#835000
0!
#840000
1!
#845000
0!
#850000
1!
#855000
0!
#860000
1!
#865000
0!
#870000
b10 8
b10 5
b10 2
b10 /
b10 ,
1!
1%
#875000
0!
0%
#880000
1*
1-
10
13
16
1!
